# Blender v2.82 (sub 7) OBJ File: 'station.blend'
# www.blender.org
mtllib station.mtl
o Station
v -6.078802 0.859117 0.500000
v -6.078802 -1.140883 0.500000
v -6.078802 0.859117 -0.500000
v -6.078802 -1.140883 -0.500000
v 4.961198 0.859117 0.500000
v 4.580542 -1.140883 0.500000
v 4.961198 0.859117 -0.500000
v 4.580542 -1.140883 -0.500000
v 0.575602 -1.140883 0.500000
v 3.961803 -1.140883 0.500000
v 4.513803 -1.140883 0.500000
v 0.575602 0.859117 -0.500000
v 3.961803 0.859117 -0.500000
v 4.513803 0.859117 -0.500000
v 4.513803 -1.140883 -0.500000
v 3.961803 -1.140883 -0.500000
v 0.575602 -1.140883 -0.500000
v 4.513803 0.859117 0.500000
v 3.961803 0.859117 0.500000
v 0.575602 0.859117 0.500000
v -5.176864 -1.140883 -0.500000
v -5.176864 0.859117 0.500000
v -5.176865 -1.140883 0.500000
v -5.176865 0.859117 -0.500000
v -6.078802 0.534882 0.500000
v 4.961198 0.749550 -0.500000
v -6.078802 0.534882 -0.500000
v 4.961198 0.749550 0.500000
v 4.513803 0.534882 0.500000
v 3.961803 0.534882 0.500000
v 0.575602 0.534882 0.500000
v 0.575602 0.534882 -0.500000
v 3.961803 0.534882 -0.500000
v 4.513803 0.534882 -0.500000
v -5.176865 0.534882 -0.500000
v -5.176864 0.534882 0.500000
v -6.078802 0.251047 0.500000
v -6.078802 0.251047 -0.500000
v 4.631230 0.392595 0.500000
v 4.513803 0.251047 0.500000
v 3.961803 0.251047 0.500000
v 0.575602 0.251047 0.500000
v 0.575602 0.251047 -0.500000
v 3.961803 0.251047 -0.500000
v 4.513803 0.251047 -0.500000
v -5.176865 0.251047 -0.500000
v -5.176864 0.251047 0.500000
v 4.631230 0.392595 -0.500000
vt 0.875000 0.500000
vt 0.812500 0.750000
vt 0.812500 0.500000
vt 0.625000 0.937500
vt 0.584471 1.000000
vt 0.584471 0.937500
vt 0.625000 0.000000
vt 0.584471 0.250000
vt 0.584471 0.000000
vt 0.375000 0.500000
vt 0.366529 0.750000
vt 0.366529 0.500000
vt 0.625000 0.500000
vt 0.584471 0.750000
vt 0.584471 0.500000
vt 0.625000 0.491529
vt 0.584471 0.491529
vt 0.625000 0.312500
vt 0.584471 0.312500
vt 0.584471 0.375000
vt 0.625000 0.375000
vt 0.584471 0.437500
vt 0.187500 0.500000
vt 0.125000 0.750000
vt 0.125000 0.500000
vt 0.250000 0.500000
vt 0.187500 0.750000
vt 0.312500 0.500000
vt 0.250000 0.750000
vt 0.625000 0.758471
vt 0.584471 0.812500
vt 0.584471 0.758471
vt 0.625000 0.812500
vt 0.584471 0.875000
vt 0.625000 0.875000
vt 0.687500 0.500000
vt 0.633471 0.750000
vt 0.633471 0.500000
vt 0.750000 0.500000
vt 0.687500 0.750000
vt 0.625000 0.750000
vt 0.625000 0.437500
vt 0.312500 0.750000
vt 0.548991 0.491529
vt 0.548991 0.437500
vt 0.548991 0.758471
vt 0.548991 0.750000
vt 0.548991 0.937500
vt 0.548991 0.875000
vt 0.548991 0.812500
vt 0.548991 0.375000
vt 0.548991 0.312500
vt 0.548991 0.250000
vt 0.548991 0.500000
vt 0.548991 0.000000
vt 0.548991 1.000000
vt 0.375000 1.000000
vt 0.375000 0.937500
vt 0.375000 0.250000
vt 0.375000 0.000000
vt 0.375000 0.750000
vt 0.375000 0.491529
vt 0.375000 0.312500
vt 0.375000 0.375000
vt 0.375000 0.437500
vt 0.375000 0.812500
vt 0.375000 0.758471
vt 0.375000 0.875000
vt 0.875000 0.750000
vt 0.625000 1.000000
vt 0.625000 0.250000
vt 0.750000 0.750000
vn 0.0000 1.0000 0.0000
vn 0.0000 0.0000 -1.0000
vn 1.0000 0.0000 0.0000
vn 0.0000 -1.0000 -0.0000
vn -1.0000 0.0000 0.0000
vn 0.0000 0.0000 1.0000
vn 0.7343 -0.6788 0.0000
vn 0.9995 -0.0330 0.0000
usemtl Base
s off
f 5/1/1 14/2/1 18/3/1
f 14/4/2 26/5/2 34/6/2
f 7/7/3 28/8/3 26/9/3
f 2/10/4 21/11/4 23/12/4
f 1/13/5 27/14/5 25/15/5
f 22/16/6 25/15/6 36/17/6
f 28/8/6 18/18/6 29/19/6
f 18/18/6 30/20/6 29/19/6
f 19/21/6 31/22/6 30/20/6
f 11/23/4 8/24/4 6/25/4
f 10/26/4 15/27/4 11/23/4
f 9/28/4 16/29/4 10/26/4
f 24/30/2 32/31/2 35/32/2
f 12/33/2 33/34/2 32/31/2
f 13/35/2 34/6/2 33/34/2
f 20/36/1 24/37/1 22/38/1
f 19/39/1 12/40/1 20/36/1
f 22/38/1 3/41/1 1/13/1
f 3/41/2 35/32/2 27/14/2
f 20/42/6 36/17/6 31/22/6
f 23/12/4 17/43/4 9/28/4
f 31/22/6 47/44/6 42/45/6
f 27/14/2 46/46/2 38/47/2
f 33/34/2 45/48/2 44/49/2
f 32/31/2 44/49/2 43/50/2
f 35/32/2 43/50/2 46/46/2
f 30/20/6 42/45/6 41/51/6
f 29/19/6 41/51/6 40/52/6
f 39/53/6 29/19/6 40/52/6
f 36/17/6 37/54/6 47/44/6
f 25/15/5 38/47/5 37/54/5
f 26/9/7 39/53/7 48/55/7
f 34/6/2 48/56/2 45/48/2
f 45/48/2 8/57/2 15/58/2
f 48/55/8 6/59/8 8/60/8
f 37/54/5 4/61/5 2/10/5
f 47/44/6 2/10/6 23/62/6
f 6/59/6 40/52/6 11/63/6
f 40/52/6 10/64/6 11/63/6
f 41/51/6 9/65/6 10/64/6
f 46/46/2 17/66/2 21/67/2
f 43/50/2 16/68/2 17/66/2
f 44/49/2 15/58/2 16/68/2
f 38/47/2 21/67/2 4/61/2
f 42/45/6 23/62/6 9/65/6
f 5/1/1 7/69/1 14/2/1
f 14/4/2 7/70/2 26/5/2
f 7/7/3 5/71/3 28/8/3
f 2/10/4 4/61/4 21/11/4
f 1/13/5 3/41/5 27/14/5
f 22/16/6 1/13/6 25/15/6
f 28/8/6 5/71/6 18/18/6
f 18/18/6 19/21/6 30/20/6
f 19/21/6 20/42/6 31/22/6
f 11/23/4 15/27/4 8/24/4
f 10/26/4 16/29/4 15/27/4
f 9/28/4 17/43/4 16/29/4
f 24/30/2 12/33/2 32/31/2
f 12/33/2 13/35/2 33/34/2
f 13/35/2 14/4/2 34/6/2
f 20/36/1 12/40/1 24/37/1
f 19/39/1 13/72/1 12/40/1
f 22/38/1 24/37/1 3/41/1
f 3/41/2 24/30/2 35/32/2
f 20/42/6 22/16/6 36/17/6
f 23/12/4 21/11/4 17/43/4
f 31/22/6 36/17/6 47/44/6
f 27/14/2 35/32/2 46/46/2
f 33/34/2 34/6/2 45/48/2
f 32/31/2 33/34/2 44/49/2
f 35/32/2 32/31/2 43/50/2
f 30/20/6 31/22/6 42/45/6
f 29/19/6 30/20/6 41/51/6
f 39/53/6 28/8/6 29/19/6
f 36/17/6 25/15/6 37/54/6
f 25/15/5 27/14/5 38/47/5
f 26/9/7 28/8/7 39/53/7
f 34/6/2 26/5/2 48/56/2
f 45/48/2 48/56/2 8/57/2
f 48/55/8 39/53/8 6/59/8
f 37/54/5 38/47/5 4/61/5
f 47/44/6 37/54/6 2/10/6
f 6/59/6 39/53/6 40/52/6
f 40/52/6 41/51/6 10/64/6
f 41/51/6 42/45/6 9/65/6
f 46/46/2 43/50/2 17/66/2
f 43/50/2 44/49/2 16/68/2
f 44/49/2 45/48/2 15/58/2
f 38/47/2 46/46/2 21/67/2
f 42/45/6 47/44/6 23/62/6
usemtl Line
f 18/3/1 13/72/1 19/39/1
f 18/3/1 14/2/1 13/72/1
